…
- **What body part is affected?**

``` r
injuries_toilet|>
  count(body_part, wt = weight, sort = TRUE)
```

    # A tibble: 24 × 2
       body_part        n
       <chr>        <dbl>
     1 Head        31370.
     2 Lower Trunk 26855.
     3 Face        13016.
     4 Upper Trunk 12508.
     5 Knee         6968.
     6 N.S./Unk     6741.
     7 Lower Leg    5087.
     8 Shoulder     3590.
     9 All Of Body  3438.
    10 Ankle        3315.
    # ℹ 14 more rows
…
